…
    ## Rows: 6006 Columns: 83
    ## ── Column specification ────────────────────────────────────────────────────────
    ## Delimiter: ","
    ## chr  (7): iso_code, country, continent, UN_region, hdicode, development_stat...
    ## dbl (76): year, co2, population, share_co2, share_tmp_ghg, tmp_change_co2, t...
    ## 
    ## ℹ Use `spec()` to retrieve the full column specification for this data.
    ## ℹ Specify the column types or set `show_col_types = FALSE` to quiet this message.

``` r
df
```

    ## # A tibble: 6,006 × 83
    ##     year iso_code country       co2 population share_co2 share_tmp_ghg
    ##    <dbl> <chr>    <chr>       <dbl>      <dbl>     <dbl>         <dbl>
    ##  1  1991 AFG      Afghanistan  1.91   12238879     0.008         0.092
    ##  2  1992 AFG      Afghanistan  1.48   13278982     0.007         0.09 
    ##  3  1993 AFG      Afghanistan  1.49   14943174     0.007         0.089
    ##  4  1994 AFG      Afghanistan  1.45   16250799     0.006         0.087
    ##  5  1995 AFG      Afghanistan  1.42   17065836     0.006         0.085
    ##  6  1996 AFG      Afghanistan  1.37   17763265     0.006         0.084
    ##  7  1997 AFG      Afghanistan  1.30   18452100     0.005         0.083
    ##  8  1998 AFG      Afghanistan  1.28   19159996     0.005         0.082
    ##  9  1999 AFG      Afghanistan  1.09   19887791     0.004         0.082
    ## 10  2000 AFG      Afghanistan  1.05   20130334     0.004         0.081
    ## # ℹ 5,996 more rows
    ## # ℹ 76 more variables: tmp_change_co2 <dbl>, tmp_change_ghg <dbl>, gdp <dbl>,
    ## #   kyoto_ratification_year <dbl>, kyoto_us_ratification_year <dbl>,
    ## #   paris_ratification_year <dbl>, kyoto_dummy <dbl>, kyoto_us_dummy <dbl>,
    ## #   paris_dummy <dbl>, time <dbl>, ln_co2 <dbl>, ln_population <dbl>,
    ## #   ln_share_co2 <dbl>, ln_share_tmp_ghg <dbl>, ln_tmp_change_co2 <dbl>,
    ## #   ln_tmp_change_ghg <dbl>, ln_gdp <dbl>, zln_co2 <dbl>, …
…
